<?xml version="1.0" standalone="no"?>
<!DOCTYPE svg PUBLIC "-//W3C//DTD SVG 1.1//EN" "http://www.w3.org/Graphics/SVG/1.1/DTD/svg11.dtd">
<svg width="90.0mm" height="80.0mm"
 viewBox="0 0 90.0 80.0"
 xmlns="http://www.w3.org/2000/svg" version="1.1"
 xmlns:xlink="http://www.w3.org/1999/xlink">
<desc>Output from Flights of Ideas SVG Sketchup Plugin</desc>

  <path id="face0-cut"
 style="fill:none;stroke:#0000FF;stroke-width:1;stroke-miterlimit:4;stroke-dasharray:none;stroke-linejoin:round;stroke-linecap:round"
        d="M 17.3920961151469,30.3568160409051 L 16.822225211328,32.2354286469243 L 10.0,36.0 L 10.0,43.9157857666016 L 16.822225211328,47.7645713530756 L 17.3920961151468,49.6431839590949 L 18.0836140246614,51.4805029709527 L 18.8938177540194,53.2686607065701 L 19.8192378864669,55.0000000000001 L 20.8559116309237,56.6671069905881 L 21.999399791263,58.2628428702617 L 23.2448057756307,59.7803744530021 L 24.5867965644036,61.2132034355965 L 26.019625546998,62.5551942243694 L 27.5371571297385,63.8006002087371 L 29.132893009412,64.9440883690764 L 30.8000000000001,65.9807621135332 L 32.53133929343,66.9061822459807 L 34.3194970290474,67.7163859753387 L 36.1568160409052,68.4079038848532 L 38.0354286469245,68.9777747886721 L 39.9472903395162,69.4235584120969 L 41.8842142333985,69.7433458412143 L 43.8379061230958,69.9357676971581 L 45.8000000000001,70.0 L 47.7620938769044,69.9357676971581 L 49.7157857666016,69.7433458412143 L 51.6527096604839,69.4235584120969 L 53.5645713530757,68.977774788672 L 55.4431839590949,68.4079038848531 L 57.2805029709527,67.7163859753386 L 59.0686607065701,66.9061822459806 L 60.8000000000001,65.9807621135331 L 62.4671069905881,64.9440883690763 L 64.0628428702616,63.800600208737 L 65.5803744530021,62.5551942243693 L 67.0132034355965,61.2132034355964 L 74.3868600259933,54.5627030356314 L 75.4138901102715,53.3409052185354 L 76.3483231393395,52.0469130956616 L 77.1851024290576,50.6877291051099 L 77.9196997484758,49.2707084707589 L 78.5481398243549,47.8035193994726 L 79.0670218533567,46.2941015846009 L 79.4735379054908,44.750623240331 L 79.7654881192266,43.1814368993974 L 79.9412926060441,41.5950342133534 L 80.0,40.0 L 79.9412926060441,38.4049657866467 L 79.7654881192266,36.8185631006025 L 79.4735379054908,35.249376759669 L 79.0670218533567,33.7058984153989 L 78.5481398243549,32.1964806005276 L 77.9196997484758,30.7292915292415 L 77.1851024290576,29.3122708948905 L 76.3483231393395,27.9530869043386 L 75.4138901102715,26.6590947814646 L 74.3868600259933,25.4372969643685 L 73.2727906595895,24.2943052116803 L 67.0132034355964,18.7867965644036 L 65.5803744530021,17.4448057756307 L 64.0628428702616,16.1993997912629 L 62.4671069905881,15.0559116309236 L 60.8,14.0192378864669 L 59.06866070657,13.0938177540193 L 57.2805029709527,12.2836140246614 L 55.4431839590949,11.5920961151468 L 53.5645713530756,11.022225211328 L 51.6527096604839,10.5764415879031 L 49.7157857666016,10.2566541587857 L 47.7620938769043,10.0642323028419 L 45.8,10.0 L 43.837906123096,10.0642323028419 L 41.8842142333987,10.2566541587857 L 39.9472903395164,10.576441587903 L 38.0354286469246,11.0222252113279 L 36.1568160409054,11.5920961151468 L 34.3194970290475,12.2836140246613 L 32.5313392934302,13.0938177540193 L 30.8000000000002,14.0192378864667 L 29.1328930094121,15.0559116309235 L 27.5371571297385,16.1993997912628 L 26.0196255469981,17.4448057756306 L 24.5867965644037,18.7867965644035 L 23.2448057756308,20.2196255469978 L 21.999399791263,21.7371571297383 L 20.8559116309237,23.3328930094118 L 19.8192378864669,24.9999999999999 L 18.8938177540194,26.7313392934299 L 18.0836140246614,28.5194970290472 L 17.3920961151469,30.3568160409051 "
  />
  <path id="face0-interior"
 style="fill:none;stroke:#FF0000;stroke-width:1;stroke-miterlimit:4;stroke-dasharray:none;stroke-linejoin:round;stroke-linecap:round"
        d="M 17.3920961151469,30.3568160409051 M 16.822225211328,32.2354286469243 M 10.0,36.0 M 10.0,43.9157857666016 M 16.822225211328,47.7645713530756 M 17.3920961151468,49.6431839590949 M 18.0836140246614,51.4805029709527 M 18.8938177540194,53.2686607065701 M 19.8192378864669,55.0000000000001 M 20.8559116309237,56.6671069905881 M 21.999399791263,58.2628428702617 M 23.2448057756307,59.7803744530021 M 24.5867965644036,61.2132034355965 M 26.019625546998,62.5551942243694 M 27.5371571297385,63.8006002087371 M 29.132893009412,64.9440883690764 M 30.8000000000001,65.9807621135332 M 32.53133929343,66.9061822459807 M 34.3194970290474,67.7163859753387 M 36.1568160409052,68.4079038848532 M 38.0354286469245,68.9777747886721 M 39.9472903395162,69.4235584120969 M 41.8842142333985,69.7433458412143 M 43.8379061230958,69.9357676971581 M 45.8000000000001,70.0 M 47.7620938769044,69.9357676971581 M 49.7157857666016,69.7433458412143 M 51.6527096604839,69.4235584120969 M 53.5645713530757,68.977774788672 M 55.4431839590949,68.4079038848531 M 57.2805029709527,67.7163859753386 M 59.0686607065701,66.9061822459806 M 60.8000000000001,65.9807621135331 M 62.4671069905881,64.9440883690763 M 64.0628428702616,63.800600208737 M 65.5803744530021,62.5551942243693 M 67.0132034355965,61.2132034355964 M 74.3868600259933,54.5627030356314 M 75.4138901102715,53.3409052185354 M 76.3483231393395,52.0469130956616 M 77.1851024290576,50.6877291051099 M 77.9196997484758,49.2707084707589 M 78.5481398243549,47.8035193994726 M 79.0670218533567,46.2941015846009 M 79.4735379054908,44.750623240331 M 79.7654881192266,43.1814368993974 M 79.9412926060441,41.5950342133534 M 80.0,40.0 M 79.9412926060441,38.4049657866467 M 79.7654881192266,36.8185631006025 M 79.4735379054908,35.249376759669 M 79.0670218533567,33.7058984153989 M 78.5481398243549,32.1964806005276 M 77.9196997484758,30.7292915292415 M 77.1851024290576,29.3122708948905 M 76.3483231393395,27.9530869043386 M 75.4138901102715,26.6590947814646 M 74.3868600259933,25.4372969643685 M 73.2727906595895,24.2943052116803 M 67.0132034355964,18.7867965644036 M 65.5803744530021,17.4448057756307 M 64.0628428702616,16.1993997912629 M 62.4671069905881,15.0559116309236 M 60.8,14.0192378864669 M 59.06866070657,13.0938177540193 M 57.2805029709527,12.2836140246614 M 55.4431839590949,11.5920961151468 M 53.5645713530756,11.022225211328 M 51.6527096604839,10.5764415879031 M 49.7157857666016,10.2566541587857 M 47.7620938769043,10.0642323028419 M 45.8,10.0 M 43.837906123096,10.0642323028419 M 41.8842142333987,10.2566541587857 M 39.9472903395164,10.576441587903 M 38.0354286469246,11.0222252113279 M 36.1568160409054,11.5920961151468 M 34.3194970290475,12.2836140246613 M 32.5313392934302,13.0938177540193 M 30.8000000000002,14.0192378864667 M 29.1328930094121,15.0559116309235 M 27.5371571297385,16.1993997912628 M 26.0196255469981,17.4448057756306 M 24.5867965644037,18.7867965644035 M 23.2448057756308,20.2196255469978 M 21.999399791263,21.7371571297383 M 20.8559116309237,23.3328930094118 M 19.8192378864669,24.9999999999999 M 18.8938177540194,26.7313392934299 M 18.0836140246614,28.5194970290472 "
  />
  <path id="face0-interior"
 style="fill:none;stroke:#00FF00;stroke-width:1;stroke-miterlimit:4;stroke-dasharray:none;stroke-linejoin:round;stroke-linecap:round"
        d="M 17.3920961151469,30.3568160409051 M 16.822225211328,32.2354286469243 M 10.0,36.0 M 10.0,43.9157857666016 M 16.822225211328,47.7645713530756 M 17.3920961151468,49.6431839590949 M 18.0836140246614,51.4805029709527 M 18.8938177540194,53.2686607065701 M 19.8192378864669,55.0000000000001 M 20.8559116309237,56.6671069905881 M 21.999399791263,58.2628428702617 M 23.2448057756307,59.7803744530021 M 24.5867965644036,61.2132034355965 M 26.019625546998,62.5551942243694 M 27.5371571297385,63.8006002087371 M 29.132893009412,64.9440883690764 M 30.8000000000001,65.9807621135332 M 32.53133929343,66.9061822459807 M 34.3194970290474,67.7163859753387 M 36.1568160409052,68.4079038848532 M 38.0354286469245,68.9777747886721 M 39.9472903395162,69.4235584120969 M 41.8842142333985,69.7433458412143 M 43.8379061230958,69.9357676971581 M 45.8000000000001,70.0 M 47.7620938769044,69.9357676971581 M 49.7157857666016,69.7433458412143 M 51.6527096604839,69.4235584120969 M 53.5645713530757,68.977774788672 M 55.4431839590949,68.4079038848531 M 57.2805029709527,67.7163859753386 M 59.0686607065701,66.9061822459806 M 60.8000000000001,65.9807621135331 M 62.4671069905881,64.9440883690763 M 64.0628428702616,63.800600208737 M 65.5803744530021,62.5551942243693 M 67.0132034355965,61.2132034355964 M 74.3868600259933,54.5627030356314 M 75.4138901102715,53.3409052185354 M 76.3483231393395,52.0469130956616 M 77.1851024290576,50.6877291051099 M 77.9196997484758,49.2707084707589 M 78.5481398243549,47.8035193994726 M 79.0670218533567,46.2941015846009 M 79.4735379054908,44.750623240331 M 79.7654881192266,43.1814368993974 M 79.9412926060441,41.5950342133534 M 80.0,40.0 M 79.9412926060441,38.4049657866467 M 79.7654881192266,36.8185631006025 M 79.4735379054908,35.249376759669 M 79.0670218533567,33.7058984153989 M 78.5481398243549,32.1964806005276 M 77.9196997484758,30.7292915292415 M 77.1851024290576,29.3122708948905 M 76.3483231393395,27.9530869043386 M 75.4138901102715,26.6590947814646 M 74.3868600259933,25.4372969643685 M 73.2727906595895,24.2943052116803 M 67.0132034355964,18.7867965644036 M 65.5803744530021,17.4448057756307 M 64.0628428702616,16.1993997912629 M 62.4671069905881,15.0559116309236 M 60.8,14.0192378864669 M 59.06866070657,13.0938177540193 M 57.2805029709527,12.2836140246614 M 55.4431839590949,11.5920961151468 M 53.5645713530756,11.022225211328 M 51.6527096604839,10.5764415879031 M 49.7157857666016,10.2566541587857 M 47.7620938769043,10.0642323028419 M 45.8,10.0 M 43.837906123096,10.0642323028419 M 41.8842142333987,10.2566541587857 M 39.9472903395164,10.576441587903 M 38.0354286469246,11.0222252113279 M 36.1568160409054,11.5920961151468 M 34.3194970290475,12.2836140246613 M 32.5313392934302,13.0938177540193 M 30.8000000000002,14.0192378864667 M 29.1328930094121,15.0559116309235 M 27.5371571297385,16.1993997912628 M 26.0196255469981,17.4448057756306 M 24.5867965644037,18.7867965644035 M 23.2448057756308,20.2196255469978 M 21.999399791263,21.7371571297383 M 20.8559116309237,23.3328930094118 M 19.8192378864669,24.9999999999999 M 18.8938177540194,26.7313392934299 M 18.0836140246614,28.5194970290472 "
  />
</svg>
